[OVERALL], RunTime(ms), 769
[OVERALL], Throughput(ops/sec), 1300.3901170351105
[TOTAL_GCS_G1_Young_Generation], Count, 0
[TOTAL_GC_TIME_G1_Young_Generation], Time(ms), 0
[TOTAL_GC_TIME_%_G1_Young_Generation], Time(%), 0.0
[TOTAL_GCS_G1_Old_Generation], Count, 0
[TOTAL_GC_TIME_G1_Old_Generation], Time(ms), 0
[TOTAL_GC_TIME_%_G1_Old_Generation], Time(%), 0.0
[TOTAL_GCs], Count, 0
[TOTAL_GC_TIME], Time(ms), 0
[TOTAL_GC_TIME_%], Time(%), 0.0
[READ], Operations, 487
[READ], AverageLatency(us), 660.4435318275154
[READ], MinLatency(us), 189
[READ], MaxLatency(us), 1458
[READ], 95thPercentileLatency(us), 1229
[READ], 99thPercentileLatency(us), 1258
[READ], Return=OK, 487
[CLEANUP], Operations, 1
[CLEANUP], AverageLatency(us), 220.0
[CLEANUP], MinLatency(us), 220
[CLEANUP], MaxLatency(us), 220
[CLEANUP], 95thPercentileLatency(us), 220
[CLEANUP], 99thPercentileLatency(us), 220
[UPDATE], Operations, 513
[UPDATE], AverageLatency(us), 714.8654970760234
[UPDATE], MinLatency(us), 194
[UPDATE], MaxLatency(us), 13391
[UPDATE], 95thPercentileLatency(us), 1220
[UPDATE], 99thPercentileLatency(us), 1262
[UPDATE], Return=OK, 513
