[OVERALL], RunTime(ms), 894
[OVERALL], Throughput(ops/sec), 1118.5682326621925
[TOTAL_GCS_G1_Young_Generation], Count, 0
[TOTAL_GC_TIME_G1_Young_Generation], Time(ms), 0
[TOTAL_GC_TIME_%_G1_Young_Generation], Time(%), 0.0
[TOTAL_GCS_G1_Old_Generation], Count, 0
[TOTAL_GC_TIME_G1_Old_Generation], Time(ms), 0
[TOTAL_GC_TIME_%_G1_Old_Generation], Time(%), 0.0
[TOTAL_GCs], Count, 0
[TOTAL_GC_TIME], Time(ms), 0
[TOTAL_GC_TIME_%], Time(%), 0.0
[READ], Operations, 495
[READ], AverageLatency(us), 499.5070707070707
[READ], MinLatency(us), 226
[READ], MaxLatency(us), 1887
[READ], 95thPercentileLatency(us), 790
[READ], 99thPercentileLatency(us), 844
[READ], Return=OK, 495
[CLEANUP], Operations, 1
[CLEANUP], AverageLatency(us), 192.0
[CLEANUP], MinLatency(us), 192
[CLEANUP], MaxLatency(us), 192
[CLEANUP], 95thPercentileLatency(us), 192
[CLEANUP], 99thPercentileLatency(us), 192
[UPDATE], Operations, 505
[UPDATE], AverageLatency(us), 1108.8712871287128
[UPDATE], MinLatency(us), 613
[UPDATE], MaxLatency(us), 12399
[UPDATE], 95thPercentileLatency(us), 1585
[UPDATE], 99thPercentileLatency(us), 1828
[UPDATE], Return=OK, 505
