[OVERALL], RunTime(ms), 1077
[OVERALL], Throughput(ops/sec), 928.5051067780872
[TOTAL_GCS_G1_Young_Generation], Count, 0
[TOTAL_GC_TIME_G1_Young_Generation], Time(ms), 0
[TOTAL_GC_TIME_%_G1_Young_Generation], Time(%), 0.0
[TOTAL_GCS_G1_Old_Generation], Count, 0
[TOTAL_GC_TIME_G1_Old_Generation], Time(ms), 0
[TOTAL_GC_TIME_%_G1_Old_Generation], Time(%), 0.0
[TOTAL_GCs], Count, 0
[TOTAL_GC_TIME], Time(ms), 0
[TOTAL_GC_TIME_%], Time(%), 0.0
[READ], Operations, 457
[READ], AverageLatency(us), 546.0853391684901
[READ], MinLatency(us), 215
[READ], MaxLatency(us), 9727
[READ], 95thPercentileLatency(us), 1004
[READ], 99thPercentileLatency(us), 1024
[READ], Return=OK, 457
[CLEANUP], Operations, 1
[CLEANUP], AverageLatency(us), 231.0
[CLEANUP], MinLatency(us), 231
[CLEANUP], MaxLatency(us), 231
[CLEANUP], 95thPercentileLatency(us), 231
[CLEANUP], 99thPercentileLatency(us), 231
[UPDATE], Operations, 543
[UPDATE], AverageLatency(us), 1362.4769797421732
[UPDATE], MinLatency(us), 860
[UPDATE], MaxLatency(us), 2875
[UPDATE], 95thPercentileLatency(us), 2159
[UPDATE], 99thPercentileLatency(us), 2279
[UPDATE], Return=OK, 543
