[OVERALL], RunTime(ms), 1072
[OVERALL], Throughput(ops/sec), 932.8358208955224
[TOTAL_GCS_G1_Young_Generation], Count, 0
[TOTAL_GC_TIME_G1_Young_Generation], Time(ms), 0
[TOTAL_GC_TIME_%_G1_Young_Generation], Time(%), 0.0
[TOTAL_GCS_G1_Old_Generation], Count, 0
[TOTAL_GC_TIME_G1_Old_Generation], Time(ms), 0
[TOTAL_GC_TIME_%_G1_Old_Generation], Time(%), 0.0
[TOTAL_GCs], Count, 0
[TOTAL_GC_TIME], Time(ms), 0
[TOTAL_GC_TIME_%], Time(%), 0.0
[READ], Operations, 513
[READ], AverageLatency(us), 642.4814814814815
[READ], MinLatency(us), 164
[READ], MaxLatency(us), 12527
[READ], 95thPercentileLatency(us), 1219
[READ], 99thPercentileLatency(us), 1273
[READ], Return=OK, 513
[CLEANUP], Operations, 1
[CLEANUP], AverageLatency(us), 327.0
[CLEANUP], MinLatency(us), 327
[CLEANUP], MaxLatency(us), 327
[CLEANUP], 95thPercentileLatency(us), 327
[CLEANUP], 99thPercentileLatency(us), 327
[UPDATE], Operations, 487
[UPDATE], AverageLatency(us), 1343.8439425051336
[UPDATE], MinLatency(us), 665
[UPDATE], MaxLatency(us), 3541
[UPDATE], 95thPercentileLatency(us), 2151
[UPDATE], 99thPercentileLatency(us), 2463
[UPDATE], Return=OK, 487
