[OVERALL], RunTime(ms), 611
[OVERALL], Throughput(ops/sec), 1636.6612111292961
[TOTAL_GCS_G1_Young_Generation], Count, 0
[TOTAL_GC_TIME_G1_Young_Generation], Time(ms), 0
[TOTAL_GC_TIME_%_G1_Young_Generation], Time(%), 0.0
[TOTAL_GCS_G1_Old_Generation], Count, 0
[TOTAL_GC_TIME_G1_Old_Generation], Time(ms), 0
[TOTAL_GC_TIME_%_G1_Old_Generation], Time(%), 0.0
[TOTAL_GCs], Count, 0
[TOTAL_GC_TIME], Time(ms), 0
[TOTAL_GC_TIME_%], Time(%), 0.0
[READ], Operations, 492
[READ], AverageLatency(us), 545.9939024390244
[READ], MinLatency(us), 163
[READ], MaxLatency(us), 11327
[READ], 95thPercentileLatency(us), 820
[READ], 99thPercentileLatency(us), 856
[READ], Return=OK, 492
[CLEANUP], Operations, 1
[CLEANUP], AverageLatency(us), 207.0
[CLEANUP], MinLatency(us), 207
[CLEANUP], MaxLatency(us), 207
[CLEANUP], 95thPercentileLatency(us), 207
[CLEANUP], 99thPercentileLatency(us), 207
[UPDATE], Operations, 508
[UPDATE], AverageLatency(us), 524.4763779527559
[UPDATE], MinLatency(us), 164
[UPDATE], MaxLatency(us), 2453
[UPDATE], 95thPercentileLatency(us), 815
[UPDATE], 99thPercentileLatency(us), 848
[UPDATE], Return=OK, 508
