[OVERALL], RunTime(ms), 698
[OVERALL], Throughput(ops/sec), 1432.6647564469913
[TOTAL_GCS_G1_Young_Generation], Count, 0
[TOTAL_GC_TIME_G1_Young_Generation], Time(ms), 0
[TOTAL_GC_TIME_%_G1_Young_Generation], Time(%), 0.0
[TOTAL_GCS_G1_Old_Generation], Count, 0
[TOTAL_GC_TIME_G1_Old_Generation], Time(ms), 0
[TOTAL_GC_TIME_%_G1_Old_Generation], Time(%), 0.0
[TOTAL_GCs], Count, 0
[TOTAL_GC_TIME], Time(ms), 0
[TOTAL_GC_TIME_%], Time(%), 0.0
[READ], Operations, 484
[READ], AverageLatency(us), 620.5185950413223
[READ], MinLatency(us), 185
[READ], MaxLatency(us), 13479
[READ], 95thPercentileLatency(us), 994
[READ], 99thPercentileLatency(us), 1047
[READ], Return=OK, 484
[CLEANUP], Operations, 1
[CLEANUP], AverageLatency(us), 237.0
[CLEANUP], MinLatency(us), 237
[CLEANUP], MaxLatency(us), 237
[CLEANUP], 95thPercentileLatency(us), 237
[CLEANUP], 99thPercentileLatency(us), 237
[UPDATE], Operations, 516
[UPDATE], AverageLatency(us), 602.234496124031
[UPDATE], MinLatency(us), 185
[UPDATE], MaxLatency(us), 3393
[UPDATE], 95thPercentileLatency(us), 984
[UPDATE], 99thPercentileLatency(us), 1022
[UPDATE], Return=OK, 516
