[OVERALL], RunTime(ms), 998
[OVERALL], Throughput(ops/sec), 1002.0040080160321
[TOTAL_GCS_G1_Young_Generation], Count, 0
[TOTAL_GC_TIME_G1_Young_Generation], Time(ms), 0
[TOTAL_GC_TIME_%_G1_Young_Generation], Time(%), 0.0
[TOTAL_GCS_G1_Old_Generation], Count, 0
[TOTAL_GC_TIME_G1_Old_Generation], Time(ms), 0
[TOTAL_GC_TIME_%_G1_Old_Generation], Time(%), 0.0
[TOTAL_GCs], Count, 0
[TOTAL_GC_TIME], Time(ms), 0
[TOTAL_GC_TIME_%], Time(%), 0.0
[READ], Operations, 498
[READ], AverageLatency(us), 613.5020080321285
[READ], MinLatency(us), 201
[READ], MaxLatency(us), 1401
[READ], 95thPercentileLatency(us), 991
[READ], 99thPercentileLatency(us), 1036
[READ], Return=OK, 498
[CLEANUP], Operations, 1
[CLEANUP], AverageLatency(us), 204.0
[CLEANUP], MinLatency(us), 204
[CLEANUP], MaxLatency(us), 204
[CLEANUP], 95thPercentileLatency(us), 204
[CLEANUP], 99thPercentileLatency(us), 204
[UPDATE], Operations, 502
[UPDATE], AverageLatency(us), 1222.3087649402391
[UPDATE], MinLatency(us), 582
[UPDATE], MaxLatency(us), 10255
[UPDATE], 95thPercentileLatency(us), 1907
[UPDATE], 99thPercentileLatency(us), 2105
[UPDATE], Return=OK, 502
