[OVERALL], RunTime(ms), 1053
[OVERALL], Throughput(ops/sec), 949.667616334283
[TOTAL_GCS_G1_Young_Generation], Count, 0
[TOTAL_GC_TIME_G1_Young_Generation], Time(ms), 0
[TOTAL_GC_TIME_%_G1_Young_Generation], Time(%), 0.0
[TOTAL_GCS_G1_Old_Generation], Count, 0
[TOTAL_GC_TIME_G1_Old_Generation], Time(ms), 0
[TOTAL_GC_TIME_%_G1_Old_Generation], Time(%), 0.0
[TOTAL_GCs], Count, 0
[TOTAL_GC_TIME], Time(ms), 0
[TOTAL_GC_TIME_%], Time(%), 0.0
[READ], Operations, 458
[READ], AverageLatency(us), 640.589519650655
[READ], MinLatency(us), 210
[READ], MaxLatency(us), 2073
[READ], 95thPercentileLatency(us), 1242
[READ], 99thPercentileLatency(us), 1268
[READ], Return=OK, 458
[CLEANUP], Operations, 1
[CLEANUP], AverageLatency(us), 206.0
[CLEANUP], MinLatency(us), 206
[CLEANUP], MaxLatency(us), 206
[CLEANUP], 95thPercentileLatency(us), 206
[CLEANUP], 99thPercentileLatency(us), 206
[UPDATE], Operations, 542
[UPDATE], AverageLatency(us), 1254.370848708487
[UPDATE], MinLatency(us), 595
[UPDATE], MaxLatency(us), 11655
[UPDATE], 95thPercentileLatency(us), 2031
[UPDATE], 99thPercentileLatency(us), 2227
[UPDATE], Return=OK, 542
