[OVERALL], RunTime(ms), 726
[OVERALL], Throughput(ops/sec), 1377.4104683195592
[TOTAL_GCS_G1_Young_Generation], Count, 0
[TOTAL_GC_TIME_G1_Young_Generation], Time(ms), 0
[TOTAL_GC_TIME_%_G1_Young_Generation], Time(%), 0.0
[TOTAL_GCS_G1_Old_Generation], Count, 0
[TOTAL_GC_TIME_G1_Old_Generation], Time(ms), 0
[TOTAL_GC_TIME_%_G1_Old_Generation], Time(%), 0.0
[TOTAL_GCs], Count, 0
[TOTAL_GC_TIME], Time(ms), 0
[TOTAL_GC_TIME_%], Time(%), 0.0
[READ], Operations, 493
[READ], AverageLatency(us), 636.6369168356998
[READ], MinLatency(us), 149
[READ], MaxLatency(us), 10975
[READ], 95thPercentileLatency(us), 1143
[READ], 99thPercentileLatency(us), 1179
[READ], Return=OK, 493
[CLEANUP], Operations, 1
[CLEANUP], AverageLatency(us), 215.0
[CLEANUP], MinLatency(us), 215
[CLEANUP], MaxLatency(us), 215
[CLEANUP], 95thPercentileLatency(us), 215
[CLEANUP], 99thPercentileLatency(us), 215
[UPDATE], Operations, 507
[UPDATE], AverageLatency(us), 638.1834319526628
[UPDATE], MinLatency(us), 155
[UPDATE], MaxLatency(us), 3595
[UPDATE], 95thPercentileLatency(us), 1145
[UPDATE], 99thPercentileLatency(us), 1174
[UPDATE], Return=OK, 507
