[OVERALL], RunTime(ms), 691
[OVERALL], Throughput(ops/sec), 1447.178002894356
[TOTAL_GCS_G1_Young_Generation], Count, 0
[TOTAL_GC_TIME_G1_Young_Generation], Time(ms), 0
[TOTAL_GC_TIME_%_G1_Young_Generation], Time(%), 0.0
[TOTAL_GCS_G1_Old_Generation], Count, 0
[TOTAL_GC_TIME_G1_Old_Generation], Time(ms), 0
[TOTAL_GC_TIME_%_G1_Old_Generation], Time(%), 0.0
[TOTAL_GCs], Count, 0
[TOTAL_GC_TIME], Time(ms), 0
[TOTAL_GC_TIME_%], Time(%), 0.0
[READ], Operations, 522
[READ], AverageLatency(us), 593.9655172413793
[READ], MinLatency(us), 238
[READ], MaxLatency(us), 2459
[READ], 95thPercentileLatency(us), 1001
[READ], 99thPercentileLatency(us), 1068
[READ], Return=OK, 522
[CLEANUP], Operations, 1
[CLEANUP], AverageLatency(us), 209.0
[CLEANUP], MinLatency(us), 209
[CLEANUP], MaxLatency(us), 209
[CLEANUP], 95thPercentileLatency(us), 209
[CLEANUP], 99thPercentileLatency(us), 209
[UPDATE], Operations, 478
[UPDATE], AverageLatency(us), 612.5355648535565
[UPDATE], MinLatency(us), 231
[UPDATE], MaxLatency(us), 10575
[UPDATE], 95thPercentileLatency(us), 995
[UPDATE], 99thPercentileLatency(us), 1040
[UPDATE], Return=OK, 478
