[OVERALL], RunTime(ms), 1045
[OVERALL], Throughput(ops/sec), 956.9377990430622
[TOTAL_GCS_G1_Young_Generation], Count, 0
[TOTAL_GC_TIME_G1_Young_Generation], Time(ms), 0
[TOTAL_GC_TIME_%_G1_Young_Generation], Time(%), 0.0
[TOTAL_GCS_G1_Old_Generation], Count, 0
[TOTAL_GC_TIME_G1_Old_Generation], Time(ms), 0
[TOTAL_GC_TIME_%_G1_Old_Generation], Time(%), 0.0
[TOTAL_GCs], Count, 0
[TOTAL_GC_TIME], Time(ms), 0
[TOTAL_GC_TIME_%], Time(%), 0.0
[READ], Operations, 503
[READ], AverageLatency(us), 632.3797216699801
[READ], MinLatency(us), 223
[READ], MaxLatency(us), 9663
[READ], 95thPercentileLatency(us), 999
[READ], 99thPercentileLatency(us), 1049
[READ], Return=OK, 503
[CLEANUP], Operations, 1
[CLEANUP], AverageLatency(us), 220.0
[CLEANUP], MinLatency(us), 220
[CLEANUP], MaxLatency(us), 220
[CLEANUP], 95thPercentileLatency(us), 220
[CLEANUP], 99thPercentileLatency(us), 220
[UPDATE], Operations, 497
[UPDATE], AverageLatency(us), 1295.5714285714287
[UPDATE], MinLatency(us), 725
[UPDATE], MaxLatency(us), 3929
[UPDATE], 95thPercentileLatency(us), 2007
[UPDATE], 99thPercentileLatency(us), 2237
[UPDATE], Return=OK, 497
