[OVERALL], RunTime(ms), 732
[OVERALL], Throughput(ops/sec), 1366.120218579235
[TOTAL_GCS_G1_Young_Generation], Count, 0
[TOTAL_GC_TIME_G1_Young_Generation], Time(ms), 0
[TOTAL_GC_TIME_%_G1_Young_Generation], Time(%), 0.0
[TOTAL_GCS_G1_Old_Generation], Count, 0
[TOTAL_GC_TIME_G1_Old_Generation], Time(ms), 0
[TOTAL_GC_TIME_%_G1_Old_Generation], Time(%), 0.0
[TOTAL_GCs], Count, 0
[TOTAL_GC_TIME], Time(ms), 0
[TOTAL_GC_TIME_%], Time(%), 0.0
[READ], Operations, 494
[READ], AverageLatency(us), 643.2894736842105
[READ], MinLatency(us), 209
[READ], MaxLatency(us), 1986
[READ], 95thPercentileLatency(us), 1201
[READ], 99thPercentileLatency(us), 1236
[READ], Return=OK, 494
[CLEANUP], Operations, 1
[CLEANUP], AverageLatency(us), 192.0
[CLEANUP], MinLatency(us), 192
[CLEANUP], MaxLatency(us), 192
[CLEANUP], 95thPercentileLatency(us), 192
[CLEANUP], 99thPercentileLatency(us), 192
[UPDATE], Operations, 506
[UPDATE], AverageLatency(us), 664.0079051383399
[UPDATE], MinLatency(us), 207
[UPDATE], MaxLatency(us), 9655
[UPDATE], 95thPercentileLatency(us), 1202
[UPDATE], 99thPercentileLatency(us), 1244
[UPDATE], Return=OK, 506
