[OVERALL], RunTime(ms), 1163
[OVERALL], Throughput(ops/sec), 859.8452278589854
[TOTAL_GCS_G1_Young_Generation], Count, 0
[TOTAL_GC_TIME_G1_Young_Generation], Time(ms), 0
[TOTAL_GC_TIME_%_G1_Young_Generation], Time(%), 0.0
[TOTAL_GCS_G1_Old_Generation], Count, 0
[TOTAL_GC_TIME_G1_Old_Generation], Time(ms), 0
[TOTAL_GC_TIME_%_G1_Old_Generation], Time(%), 0.0
[TOTAL_GCs], Count, 0
[TOTAL_GC_TIME], Time(ms), 0
[TOTAL_GC_TIME_%], Time(%), 0.0
[READ], Operations, 504
[READ], AverageLatency(us), 720.5178571428571
[READ], MinLatency(us), 177
[READ], MaxLatency(us), 10055
[READ], 95thPercentileLatency(us), 1234
[READ], 99thPercentileLatency(us), 1289
[READ], Return=OK, 504
[CLEANUP], Operations, 1
[CLEANUP], AverageLatency(us), 329.0
[CLEANUP], MinLatency(us), 329
[CLEANUP], MaxLatency(us), 329
[CLEANUP], 95thPercentileLatency(us), 329
[CLEANUP], 99thPercentileLatency(us), 329
[UPDATE], Operations, 496
[UPDATE], AverageLatency(us), 1439.2237903225807
[UPDATE], MinLatency(us), 685
[UPDATE], MaxLatency(us), 3657
[UPDATE], 95thPercentileLatency(us), 2273
[UPDATE], 99thPercentileLatency(us), 2539
[UPDATE], Return=OK, 496
