[OVERALL], RunTime(ms), 1151
[OVERALL], Throughput(ops/sec), 868.8097306689835
[TOTAL_GCS_G1_Young_Generation], Count, 0
[TOTAL_GC_TIME_G1_Young_Generation], Time(ms), 0
[TOTAL_GC_TIME_%_G1_Young_Generation], Time(%), 0.0
[TOTAL_GCS_G1_Old_Generation], Count, 0
[TOTAL_GC_TIME_G1_Old_Generation], Time(ms), 0
[TOTAL_GC_TIME_%_G1_Old_Generation], Time(%), 0.0
[TOTAL_GCs], Count, 0
[TOTAL_GC_TIME], Time(ms), 0
[TOTAL_GC_TIME_%], Time(%), 0.0
[READ], Operations, 478
[READ], AverageLatency(us), 659.7133891213389
[READ], MinLatency(us), 181
[READ], MaxLatency(us), 2177
[READ], 95thPercentileLatency(us), 1152
[READ], 99thPercentileLatency(us), 1219
[READ], Return=OK, 478
[CLEANUP], Operations, 1
[CLEANUP], AverageLatency(us), 401.0
[CLEANUP], MinLatency(us), 401
[CLEANUP], MaxLatency(us), 401
[CLEANUP], 95thPercentileLatency(us), 401
[CLEANUP], 99thPercentileLatency(us), 401
[UPDATE], Operations, 522
[UPDATE], AverageLatency(us), 1435.3429118773947
[UPDATE], MinLatency(us), 676
[UPDATE], MaxLatency(us), 12647
[UPDATE], 95thPercentileLatency(us), 2225
[UPDATE], 99thPercentileLatency(us), 2357
[UPDATE], Return=OK, 522
