[OVERALL], RunTime(ms), 629
[OVERALL], Throughput(ops/sec), 1589.825119236884
[TOTAL_GCS_G1_Young_Generation], Count, 0
[TOTAL_GC_TIME_G1_Young_Generation], Time(ms), 0
[TOTAL_GC_TIME_%_G1_Young_Generation], Time(%), 0.0
[TOTAL_GCS_G1_Old_Generation], Count, 0
[TOTAL_GC_TIME_G1_Old_Generation], Time(ms), 0
[TOTAL_GC_TIME_%_G1_Old_Generation], Time(%), 0.0
[TOTAL_GCs], Count, 0
[TOTAL_GC_TIME], Time(ms), 0
[TOTAL_GC_TIME_%], Time(%), 0.0
[READ], Operations, 501
[READ], AverageLatency(us), 554.0339321357285
[READ], MinLatency(us), 210
[READ], MaxLatency(us), 2107
[READ], 95thPercentileLatency(us), 1002
[READ], 99thPercentileLatency(us), 1023
[READ], Return=OK, 501
[CLEANUP], Operations, 1
[CLEANUP], AverageLatency(us), 251.0
[CLEANUP], MinLatency(us), 251
[CLEANUP], MaxLatency(us), 251
[CLEANUP], 95thPercentileLatency(us), 251
[CLEANUP], 99thPercentileLatency(us), 251
[UPDATE], Operations, 499
[UPDATE], AverageLatency(us), 553.8316633266533
[UPDATE], MinLatency(us), 208
[UPDATE], MaxLatency(us), 10407
[UPDATE], 95thPercentileLatency(us), 993
[UPDATE], 99thPercentileLatency(us), 1044
[UPDATE], Return=OK, 499
