[OVERALL], RunTime(ms), 1135
[OVERALL], Throughput(ops/sec), 881.0572687224669
[TOTAL_GCS_G1_Young_Generation], Count, 0
[TOTAL_GC_TIME_G1_Young_Generation], Time(ms), 0
[TOTAL_GC_TIME_%_G1_Young_Generation], Time(%), 0.0
[TOTAL_GCS_G1_Old_Generation], Count, 0
[TOTAL_GC_TIME_G1_Old_Generation], Time(ms), 0
[TOTAL_GC_TIME_%_G1_Old_Generation], Time(%), 0.0
[TOTAL_GCs], Count, 0
[TOTAL_GC_TIME], Time(ms), 0
[TOTAL_GC_TIME_%], Time(%), 0.0
[READ], Operations, 493
[READ], AverageLatency(us), 618.3204868154158
[READ], MinLatency(us), 205
[READ], MaxLatency(us), 2331
[READ], 95thPercentileLatency(us), 1221
[READ], 99thPercentileLatency(us), 1251
[READ], Return=OK, 493
[CLEANUP], Operations, 1
[CLEANUP], AverageLatency(us), 317.0
[CLEANUP], MinLatency(us), 317
[CLEANUP], MaxLatency(us), 317
[CLEANUP], 95thPercentileLatency(us), 317
[CLEANUP], 99thPercentileLatency(us), 317
[UPDATE], Operations, 507
[UPDATE], AverageLatency(us), 1462.8323471400395
[UPDATE], MinLatency(us), 867
[UPDATE], MaxLatency(us), 12223
[UPDATE], 95thPercentileLatency(us), 2287
[UPDATE], 99thPercentileLatency(us), 2533
[UPDATE], Return=OK, 507
