[OVERALL], RunTime(ms), 1042
[OVERALL], Throughput(ops/sec), 959.6928982725528
[TOTAL_GCS_G1_Young_Generation], Count, 0
[TOTAL_GC_TIME_G1_Young_Generation], Time(ms), 0
[TOTAL_GC_TIME_%_G1_Young_Generation], Time(%), 0.0
[TOTAL_GCS_G1_Old_Generation], Count, 0
[TOTAL_GC_TIME_G1_Old_Generation], Time(ms), 0
[TOTAL_GC_TIME_%_G1_Old_Generation], Time(%), 0.0
[TOTAL_GCs], Count, 0
[TOTAL_GC_TIME], Time(ms), 0
[TOTAL_GC_TIME_%], Time(%), 0.0
[READ], Operations, 483
[READ], AverageLatency(us), 555.5383022774328
[READ], MinLatency(us), 186
[READ], MaxLatency(us), 10127
[READ], 95thPercentileLatency(us), 829
[READ], 99thPercentileLatency(us), 857
[READ], Return=OK, 483
[CLEANUP], Operations, 1
[CLEANUP], AverageLatency(us), 201.0
[CLEANUP], MinLatency(us), 201
[CLEANUP], MaxLatency(us), 201
[CLEANUP], 95thPercentileLatency(us), 201
[CLEANUP], 99thPercentileLatency(us), 201
[UPDATE], Operations, 517
[UPDATE], AverageLatency(us), 1327.4526112185686
[UPDATE], MinLatency(us), 834
[UPDATE], MaxLatency(us), 2675
[UPDATE], 95thPercentileLatency(us), 1928
[UPDATE], 99thPercentileLatency(us), 2095
[UPDATE], Return=OK, 517
