[OVERALL], RunTime(ms), 947
[OVERALL], Throughput(ops/sec), 1055.9662090813094
[TOTAL_GCS_G1_Young_Generation], Count, 0
[TOTAL_GC_TIME_G1_Young_Generation], Time(ms), 0
[TOTAL_GC_TIME_%_G1_Young_Generation], Time(%), 0.0
[TOTAL_GCS_G1_Old_Generation], Count, 0
[TOTAL_GC_TIME_G1_Old_Generation], Time(ms), 0
[TOTAL_GC_TIME_%_G1_Old_Generation], Time(%), 0.0
[TOTAL_GCs], Count, 0
[TOTAL_GC_TIME], Time(ms), 0
[TOTAL_GC_TIME_%], Time(%), 0.0
[READ], Operations, 474
[READ], AverageLatency(us), 534.9261603375527
[READ], MinLatency(us), 231
[READ], MaxLatency(us), 1459
[READ], 95thPercentileLatency(us), 836
[READ], 99thPercentileLatency(us), 874
[READ], Return=OK, 474
[CLEANUP], Operations, 1
[CLEANUP], AverageLatency(us), 229.0
[CLEANUP], MinLatency(us), 229
[CLEANUP], MaxLatency(us), 229
[CLEANUP], 95thPercentileLatency(us), 229
[CLEANUP], 99thPercentileLatency(us), 229
[UPDATE], Operations, 526
[UPDATE], AverageLatency(us), 1171.2946768060835
[UPDATE], MinLatency(us), 649
[UPDATE], MaxLatency(us), 10535
[UPDATE], 95thPercentileLatency(us), 1800
[UPDATE], 99thPercentileLatency(us), 2044
[UPDATE], Return=OK, 526
