[OVERALL], RunTime(ms), 1033
[OVERALL], Throughput(ops/sec), 968.054211035818
[TOTAL_GCS_G1_Young_Generation], Count, 0
[TOTAL_GC_TIME_G1_Young_Generation], Time(ms), 0
[TOTAL_GC_TIME_%_G1_Young_Generation], Time(%), 0.0
[TOTAL_GCS_G1_Old_Generation], Count, 0
[TOTAL_GC_TIME_G1_Old_Generation], Time(ms), 0
[TOTAL_GC_TIME_%_G1_Old_Generation], Time(%), 0.0
[TOTAL_GCs], Count, 0
[TOTAL_GC_TIME], Time(ms), 0
[TOTAL_GC_TIME_%], Time(%), 0.0
[READ], Operations, 505
[READ], AverageLatency(us), 616.279207920792
[READ], MinLatency(us), 163
[READ], MaxLatency(us), 2457
[READ], 95thPercentileLatency(us), 1222
[READ], 99thPercentileLatency(us), 1268
[READ], Return=OK, 505
[CLEANUP], Operations, 1
[CLEANUP], AverageLatency(us), 223.0
[CLEANUP], MinLatency(us), 223
[CLEANUP], MaxLatency(us), 223
[CLEANUP], 95thPercentileLatency(us), 223
[CLEANUP], 99thPercentileLatency(us), 223
[UPDATE], Operations, 495
[UPDATE], AverageLatency(us), 1275.8020202020202
[UPDATE], MinLatency(us), 556
[UPDATE], MaxLatency(us), 10951
[UPDATE], 95thPercentileLatency(us), 2067
[UPDATE], 99thPercentileLatency(us), 2477
[UPDATE], Return=OK, 495
