[OVERALL], RunTime(ms), 774
[OVERALL], Throughput(ops/sec), 1291.9896640826873
[TOTAL_GCS_G1_Young_Generation], Count, 0
[TOTAL_GC_TIME_G1_Young_Generation], Time(ms), 0
[TOTAL_GC_TIME_%_G1_Young_Generation], Time(%), 0.0
[TOTAL_GCS_G1_Old_Generation], Count, 0
[TOTAL_GC_TIME_G1_Old_Generation], Time(ms), 0
[TOTAL_GC_TIME_%_G1_Old_Generation], Time(%), 0.0
[TOTAL_GCs], Count, 0
[TOTAL_GC_TIME], Time(ms), 0
[TOTAL_GC_TIME_%], Time(%), 0.0
[READ], Operations, 524
[READ], AverageLatency(us), 673.0648854961833
[READ], MinLatency(us), 175
[READ], MaxLatency(us), 2177
[READ], 95thPercentileLatency(us), 1207
[READ], 99thPercentileLatency(us), 1245
[READ], Return=OK, 524
[CLEANUP], Operations, 1
[CLEANUP], AverageLatency(us), 204.0
[CLEANUP], MinLatency(us), 204
[CLEANUP], MaxLatency(us), 204
[CLEANUP], 95thPercentileLatency(us), 204
[CLEANUP], 99thPercentileLatency(us), 204
[UPDATE], Operations, 476
[UPDATE], AverageLatency(us), 709.2226890756302
[UPDATE], MinLatency(us), 188
[UPDATE], MaxLatency(us), 11039
[UPDATE], 95thPercentileLatency(us), 1211
[UPDATE], 99thPercentileLatency(us), 1257
[UPDATE], Return=OK, 476
