[OVERALL], RunTime(ms), 1051
[OVERALL], Throughput(ops/sec), 951.4747859181732
[TOTAL_GCS_G1_Young_Generation], Count, 0
[TOTAL_GC_TIME_G1_Young_Generation], Time(ms), 0
[TOTAL_GC_TIME_%_G1_Young_Generation], Time(%), 0.0
[TOTAL_GCS_G1_Old_Generation], Count, 0
[TOTAL_GC_TIME_G1_Old_Generation], Time(ms), 0
[TOTAL_GC_TIME_%_G1_Old_Generation], Time(%), 0.0
[TOTAL_GCs], Count, 0
[TOTAL_GC_TIME], Time(ms), 0
[TOTAL_GC_TIME_%], Time(%), 0.0
[READ], Operations, 501
[READ], AverageLatency(us), 585.307385229541
[READ], MinLatency(us), 212
[READ], MaxLatency(us), 1473
[READ], 95thPercentileLatency(us), 988
[READ], 99thPercentileLatency(us), 1010
[READ], Return=OK, 501
[CLEANUP], Operations, 1
[CLEANUP], AverageLatency(us), 190.0
[CLEANUP], MinLatency(us), 190
[CLEANUP], MaxLatency(us), 190
[CLEANUP], 95thPercentileLatency(us), 190
[CLEANUP], 99thPercentileLatency(us), 190
[UPDATE], Operations, 499
[UPDATE], AverageLatency(us), 1351.801603206413
[UPDATE], MinLatency(us), 686
[UPDATE], MaxLatency(us), 14911
[UPDATE], 95thPercentileLatency(us), 2030
[UPDATE], 99thPercentileLatency(us), 2229
[UPDATE], Return=OK, 499
