[OVERALL], RunTime(ms), 1017
[OVERALL], Throughput(ops/sec), 983.284169124877
[TOTAL_GCS_G1_Young_Generation], Count, 0
[TOTAL_GC_TIME_G1_Young_Generation], Time(ms), 0
[TOTAL_GC_TIME_%_G1_Young_Generation], Time(%), 0.0
[TOTAL_GCS_G1_Old_Generation], Count, 0
[TOTAL_GC_TIME_G1_Old_Generation], Time(ms), 0
[TOTAL_GC_TIME_%_G1_Old_Generation], Time(%), 0.0
[TOTAL_GCs], Count, 0
[TOTAL_GC_TIME], Time(ms), 0
[TOTAL_GC_TIME_%], Time(%), 0.0
[READ], Operations, 522
[READ], AverageLatency(us), 560.9329501915709
[READ], MinLatency(us), 207
[READ], MaxLatency(us), 10207
[READ], 95thPercentileLatency(us), 1006
[READ], 99thPercentileLatency(us), 1059
[READ], Return=OK, 522
[CLEANUP], Operations, 1
[CLEANUP], AverageLatency(us), 332.0
[CLEANUP], MinLatency(us), 332
[CLEANUP], MaxLatency(us), 332
[CLEANUP], 95thPercentileLatency(us), 332
[CLEANUP], 99thPercentileLatency(us), 332
[UPDATE], Operations, 478
[UPDATE], AverageLatency(us), 1334.8012552301254
[UPDATE], MinLatency(us), 854
[UPDATE], MaxLatency(us), 4017
[UPDATE], 95thPercentileLatency(us), 2045
[UPDATE], 99thPercentileLatency(us), 2355
[UPDATE], Return=OK, 478
