[OVERALL], RunTime(ms), 985
[OVERALL], Throughput(ops/sec), 1015.2284263959391
[TOTAL_GCS_G1_Young_Generation], Count, 0
[TOTAL_GC_TIME_G1_Young_Generation], Time(ms), 0
[TOTAL_GC_TIME_%_G1_Young_Generation], Time(%), 0.0
[TOTAL_GCS_G1_Old_Generation], Count, 0
[TOTAL_GC_TIME_G1_Old_Generation], Time(ms), 0
[TOTAL_GC_TIME_%_G1_Old_Generation], Time(%), 0.0
[TOTAL_GCs], Count, 0
[TOTAL_GC_TIME], Time(ms), 0
[TOTAL_GC_TIME_%], Time(%), 0.0
[READ], Operations, 479
[READ], AverageLatency(us), 589.9665970772443
[READ], MinLatency(us), 163
[READ], MaxLatency(us), 1873
[READ], 95thPercentileLatency(us), 1214
[READ], 99thPercentileLatency(us), 1271
[READ], Return=OK, 479
[CLEANUP], Operations, 1
[CLEANUP], AverageLatency(us), 189.0
[CLEANUP], MinLatency(us), 189
[CLEANUP], MaxLatency(us), 189
[CLEANUP], 95thPercentileLatency(us), 189
[CLEANUP], 99thPercentileLatency(us), 189
[UPDATE], Operations, 521
[UPDATE], AverageLatency(us), 1191.8618042226487
[UPDATE], MinLatency(us), 562
[UPDATE], MaxLatency(us), 10983
[UPDATE], 95thPercentileLatency(us), 1959
[UPDATE], 99thPercentileLatency(us), 2425
[UPDATE], Return=OK, 521
