[OVERALL], RunTime(ms), 618
[OVERALL], Throughput(ops/sec), 1618.1229773462783
[TOTAL_GCS_G1_Young_Generation], Count, 0
[TOTAL_GC_TIME_G1_Young_Generation], Time(ms), 0
[TOTAL_GC_TIME_%_G1_Young_Generation], Time(%), 0.0
[TOTAL_GCS_G1_Old_Generation], Count, 0
[TOTAL_GC_TIME_G1_Old_Generation], Time(ms), 0
[TOTAL_GC_TIME_%_G1_Old_Generation], Time(%), 0.0
[TOTAL_GCs], Count, 0
[TOTAL_GC_TIME], Time(ms), 0
[TOTAL_GC_TIME_%], Time(%), 0.0
[READ], Operations, 487
[READ], AverageLatency(us), 527.0266940451745
[READ], MinLatency(us), 144
[READ], MaxLatency(us), 1682
[READ], 95thPercentileLatency(us), 813
[READ], 99thPercentileLatency(us), 838
[READ], Return=OK, 487
[CLEANUP], Operations, 1
[CLEANUP], AverageLatency(us), 202.0
[CLEANUP], MinLatency(us), 202
[CLEANUP], MaxLatency(us), 202
[CLEANUP], 95thPercentileLatency(us), 202
[CLEANUP], 99thPercentileLatency(us), 202
[UPDATE], Operations, 513
[UPDATE], AverageLatency(us), 552.3235867446393
[UPDATE], MinLatency(us), 147
[UPDATE], MaxLatency(us), 10295
[UPDATE], 95thPercentileLatency(us), 812
[UPDATE], 99thPercentileLatency(us), 849
[UPDATE], Return=OK, 513
