[OVERALL], RunTime(ms), 1011
[OVERALL], Throughput(ops/sec), 989.1196834817013
[TOTAL_GCS_G1_Young_Generation], Count, 0
[TOTAL_GC_TIME_G1_Young_Generation], Time(ms), 0
[TOTAL_GC_TIME_%_G1_Young_Generation], Time(%), 0.0
[TOTAL_GCS_G1_Old_Generation], Count, 0
[TOTAL_GC_TIME_G1_Old_Generation], Time(ms), 0
[TOTAL_GC_TIME_%_G1_Old_Generation], Time(%), 0.0
[TOTAL_GCs], Count, 0
[TOTAL_GC_TIME], Time(ms), 0
[TOTAL_GC_TIME_%], Time(%), 0.0
[READ], Operations, 522
[READ], AverageLatency(us), 518.911877394636
[READ], MinLatency(us), 217
[READ], MaxLatency(us), 10063
[READ], 95thPercentileLatency(us), 787
[READ], 99thPercentileLatency(us), 836
[READ], Return=OK, 522
[CLEANUP], Operations, 1
[CLEANUP], AverageLatency(us), 219.0
[CLEANUP], MinLatency(us), 219
[CLEANUP], MaxLatency(us), 219
[CLEANUP], 95thPercentileLatency(us), 219
[CLEANUP], 99thPercentileLatency(us), 219
[UPDATE], Operations, 478
[UPDATE], AverageLatency(us), 1368.5983263598325
[UPDATE], MinLatency(us), 937
[UPDATE], MaxLatency(us), 3635
[UPDATE], 95thPercentileLatency(us), 1853
[UPDATE], 99thPercentileLatency(us), 2065
[UPDATE], Return=OK, 478
