[OVERALL], RunTime(ms), 1111
[OVERALL], Throughput(ops/sec), 900.0900090009001
[TOTAL_GCS_G1_Young_Generation], Count, 0
[TOTAL_GC_TIME_G1_Young_Generation], Time(ms), 0
[TOTAL_GC_TIME_%_G1_Young_Generation], Time(%), 0.0
[TOTAL_GCS_G1_Old_Generation], Count, 0
[TOTAL_GC_TIME_G1_Old_Generation], Time(ms), 0
[TOTAL_GC_TIME_%_G1_Old_Generation], Time(%), 0.0
[TOTAL_GCs], Count, 0
[TOTAL_GC_TIME], Time(ms), 0
[TOTAL_GC_TIME_%], Time(%), 0.0
[READ], Operations, 528
[READ], AverageLatency(us), 669.6117424242424
[READ], MinLatency(us), 223
[READ], MaxLatency(us), 9719
[READ], 95thPercentileLatency(us), 1133
[READ], 99thPercentileLatency(us), 1192
[READ], Return=OK, 528
[CLEANUP], Operations, 1
[CLEANUP], AverageLatency(us), 447.0
[CLEANUP], MinLatency(us), 447
[CLEANUP], MaxLatency(us), 447
[CLEANUP], 95thPercentileLatency(us), 447
[CLEANUP], 99thPercentileLatency(us), 447
[UPDATE], Operations, 472
[UPDATE], AverageLatency(us), 1430.2733050847457
[UPDATE], MinLatency(us), 738
[UPDATE], MaxLatency(us), 3385
[UPDATE], 95thPercentileLatency(us), 2249
[UPDATE], 99thPercentileLatency(us), 2319
[UPDATE], Return=OK, 472
