[OVERALL], RunTime(ms), 1144
[OVERALL], Throughput(ops/sec), 874.1258741258741
[TOTAL_GCS_G1_Young_Generation], Count, 0
[TOTAL_GC_TIME_G1_Young_Generation], Time(ms), 0
[TOTAL_GC_TIME_%_G1_Young_Generation], Time(%), 0.0
[TOTAL_GCS_G1_Old_Generation], Count, 0
[TOTAL_GC_TIME_G1_Old_Generation], Time(ms), 0
[TOTAL_GC_TIME_%_G1_Old_Generation], Time(%), 0.0
[TOTAL_GCs], Count, 0
[TOTAL_GC_TIME], Time(ms), 0
[TOTAL_GC_TIME_%], Time(%), 0.0
[READ], Operations, 484
[READ], AverageLatency(us), 717.0371900826447
[READ], MinLatency(us), 221
[READ], MaxLatency(us), 9071
[READ], 95thPercentileLatency(us), 1251
[READ], 99thPercentileLatency(us), 1285
[READ], Return=OK, 484
[CLEANUP], Operations, 1
[CLEANUP], AverageLatency(us), 367.0
[CLEANUP], MinLatency(us), 367
[CLEANUP], MaxLatency(us), 367
[CLEANUP], 95thPercentileLatency(us), 367
[CLEANUP], 99thPercentileLatency(us), 367
[UPDATE], Operations, 516
[UPDATE], AverageLatency(us), 1380.484496124031
[UPDATE], MinLatency(us), 699
[UPDATE], MaxLatency(us), 3343
[UPDATE], 95thPercentileLatency(us), 2211
[UPDATE], 99thPercentileLatency(us), 2477
[UPDATE], Return=OK, 516
